/* XPM */
static const char * loadgeojs_xpm[] = {
"16 16 188 2",
"  	c None",
". 	c #616EC4",
"+ 	c #A5BBE1",
"@ 	c #BACCEA",
"# 	c #C5BEE0",
"$ 	c #C5B4DA",
"% 	c #BDB0D7",
"& 	c #A6ACD7",
"* 	c #5D69BE",
"= 	c #5A66BA",
"- 	c #8CA2D8",
"; 	c #CDE8F5",
"> 	c #D4DAED",
", 	c #CED3ED",
"' 	c #CFAFDF",
") 	c #D6B5DE",
"! 	c #D4A2D4",
"~ 	c #CEA1D0",
"{ 	c #C4AAD0",
"] 	c #8791C9",
"^ 	c #535DAF",
"/ 	c #87A0D7",
"( 	c #C0DEF2",
"_ 	c #C7D6F2",
": 	c #D5D5EF",
"< 	c #D0CFE9",
"[ 	c #D5A6DB",
"} 	c #DCABDE",
"| 	c #DB90CD",
"1 	c #D78BC8",
"2 	c #C98EC1",
"3 	c #BDAFD5",
"4 	c #7A91C7",
"5 	c #4A53A3",
"6 	c #C0E2F3",
"7 	c #B5B4EF",
"8 	c #B5ACF0",
"9 	c #C1B7ED",
"0 	c #D4B7E3",
"a 	c #D99CD8",
"b 	c #DA95D3",
"c 	c #CD6DB5",
"d 	c #C76DB3",
"e 	c #B584CB",
"f 	c #949ADF",
"g 	c #AFCDE7",
"h 	c #464D9B",
"i 	c #98B5DE",
"j 	c #B5CCEB",
"k 	c #B1A7EF",
"l 	c #C9A9EE",
"m 	c #D1C9EA",
"n 	c #D58DCF",
"o 	c #D98BCB",
"p 	c #CD66B4",
"q 	c #BC67BC",
"r 	c #9A71D6",
"s 	c #8273DE",
"t 	c #7A71DC",
"u 	c #91A3D0",
"v 	c #88A4C8",
"w 	c #3D438F",
"x 	c #B3D2EC",
"y 	c #9BA2E2",
"z 	c #9D8DEA",
"A 	c #D4B7ED",
"B 	c #D0C7EA",
"C 	c #CF6EB9",
"D 	c #CC66B1",
"E 	c #CB75C9",
"F 	c #7667DB",
"G 	c #664DD9",
"H 	c #654DD7",
"I 	c #6C5DD3",
"J 	c #737EBB",
"K 	c #A5C2DB",
"L 	c #393E88",
"M 	c #BEDCF0",
"N 	c #8183D8",
"O 	c #776DDB",
"P 	c #BF9AE5",
"Q 	c #CCA7DF",
"R 	c #CA5DA8",
"S 	c #C26CBD",
"T 	c #B88BDA",
"U 	c #A660D8",
"V 	c #3C68A7",
"W 	c #31659F",
"X 	c #5950BC",
"Y 	c #636CAB",
"Z 	c #B2CEE4",
"` 	c #353982",
" .	c #606DC3",
"..	c #BEDDEF",
"+.	c #737DD1",
"@.	c #906CD1",
"#.	c #BC9EE0",
"$.	c #C75EA7",
"%.	c #D35EB0",
"&.	c #C65399",
"*.	c #C66EBC",
"=.	c #AF7AD1",
"-.	c #3B64A2",
";.	c #5A81B3",
">.	c #285798",
",.	c #5A67A3",
"'.	c #B1CEE3",
").	c #31357E",
"!.	c #5E6ABF",
"~.	c #B0CFE9",
"{.	c #8390D4",
"].	c #BF8ADC",
"^.	c #C382CB",
"/.	c #CC56A2",
"(.	c #3D6FA5",
"_.	c #3A6DA3",
":.	c #3567A1",
"<.	c #31619D",
"[.	c #557CAF",
"}.	c #91AACB",
"|.	c #4F74AB",
"1.	c #18468F",
"2.	c #A1BCD8",
"3.	c #2F327A",
"4.	c #92AFD7",
"5.	c #A0B4DE",
"6.	c #8470C6",
"7.	c #A880D0",
"8.	c #C55CA5",
"9.	c #376BA3",
"0.	c #96B0CE",
"a.	c #94ADCD",
"b.	c #90A8CB",
"c.	c #7490BC",
"d.	c #8AA1C7",
"e.	c #4668A5",
"f.	c #093788",
"g.	c #B5D3EA",
"h.	c #6974BC",
"i.	c #6E71BD",
"j.	c #BE6DB6",
"k.	c #31639F",
"l.	c #6F8EBA",
"m.	c #6B89B8",
"n.	c #6685B6",
"o.	c #6180B3",
"p.	c #6782B5",
"q.	c #8398C2",
"r.	c #3C5CA0",
"s.	c #00257F",
"t.	c #4E57A8",
"u.	c #768DC0",
"v.	c #99B3D7",
"w.	c #7980C0",
"x.	c #BC7EC2",
"y.	c #295B9B",
"z.	c #90A9CA",
"A.	c #8DA5C8",
"B.	c #8AA1C6",
"C.	c #889EC5",
"D.	c #6A85B6",
"E.	c #8297C2",
"F.	c #4866A5",
"G.	c #06237D",
"H.	c #7086B7",
"I.	c #AEC7E8",
"J.	c #C0A0D2",
"K.	c #225197",
"L.	c #1C4991",
"M.	c #16438F",
"N.	c #103B8B",
"O.	c #3A5E9F",
"P.	c #8096C1",
"Q.	c #4662A3",
"R.	c #07227D",
"S.	c #3A3F8A",
"T.	c #9B9DC5",
"U.	c #B39DC2",
"V.	c #BD9CC1",
"W.	c #BE9DC3",
"X.	c #B0B1D2",
"Y.	c #0B3488",
"Z.	c #435FA1",
"`.	c #07227B",
" +	c #333780",
".+	c #31347D",
"++	c #03227D",
"@+	c #031E7B",
"          . . . . . .           ",
"      . . + @ # $ % & * =       ",
"    . - ; > , ' ) ! ~ { ] ^     ",
"  . / ( _ : < [ } | 1 2 3 4 5   ",
"  . 6 7 8 9 0 a b c d e f g h   ",
". i j k l m n o p q r s t u v w ",
". x y z A B C D E F G H I J K L ",
". M N O P Q R S T U V W X Y Z ` ",
" ...+.@.#.$.%.&.*.=.-.;.>.,.'.).",
"!.~.{.].^./.(._.:.<.[.}.|.1.2.3.",
"= 4.5.6.7.8.9.0.a.}.b.c.d.e.f.3.",
"  ^ g.h.i.j.k.a.l.m.n.o.p.q.r.s.",
"  t.u.v.w.x.y.z.A.B.C.D.E.F.G.  ",
"    h H.I.J.K.L.M.N.O.P.Q.R.    ",
"      w S.T.U.V.W.X.Y.Z.`.      ",
"           +.+3.3.3.++@+        "};
